…
    # run QTL scan
    out <- scan1(pr, iron$pheno, Xcovar=Xcovar)

    # get QTL effects
    c2eff <- scan1coef(pr[,"2"], iron$pheno[,"liver"])

`qtl2helper` provides methods for the `tidy` function (from the
[`broom`]() package), which convert several `R/qtl2` objects to (long)
data frames.

    # convert scan1 object to a tibble
    tidy(out)

    ## # A tibble: 1,762 x 3
    ##    marker   pheno   LOD
    ##    <chr>    <chr> <dbl>
    ##  1 D1Mit18  liver 0.293
    ##  2 c1.loc28 liver 0.282
    ##  3 c1.loc29 liver 0.270
    ##  4 c1.loc30 liver 0.257
    ##  5 c1.loc31 liver 0.244
    ##  6 c1.loc32 liver 0.231
    ##  7 c1.loc33 liver 0.218
    ##  8 c1.loc34 liver 0.204
    ##  9 c1.loc35 liver 0.190
    ## 10 c1.loc36 liver 0.176
    ## # … with 1,752 more rows

You can provide a *map* of markers to `tidy()` to get marker positions
in the output:

    # convert scan1 object to a tibble
    tidy(out, map)

    ## # A tibble: 1,762 x 5
    ##    marker   chrom   pos pheno   LOD
    ##    <chr>    <fct> <dbl> <chr> <dbl>
    ##  1 D1Mit18  1      27.3 liver 0.293
    ##  2 c1.loc28 1      28.3 liver 0.282
    ##  3 c1.loc29 1      29.3 liver 0.270
    ##  4 c1.loc30 1      30.3 liver 0.257
    ##  5 c1.loc31 1      31.3 liver 0.244
    ##  6 c1.loc32 1      32.3 liver 0.231
    ##  7 c1.loc33 1      33.3 liver 0.218
    ##  8 c1.loc34 1      34.3 liver 0.204
    ##  9 c1.loc35 1      35.3 liver 0.190
    ## 10 c1.loc36 1      36.3 liver 0.176
    ## # … with 1,752 more rows
…
